<svg width="172" height="22" viewBox="0 0 172 22" fill="none" xmlns="http://www.w3.org/2000/svg">
<path d="M0.693359 12.4306V11.8776C0.693359 10.988 1.3185 10.5071 2.5207 10.5071H4.22782L5.0934 7.79015H4.42017C3.21797 7.79015 2.59283 7.30927 2.59283 6.37156V5.81855C2.59283 4.92892 3.21797 4.47209 4.42017 4.47209H6.12729L7.16117 1.17807C7.18522 1.05785 7.35353 1.00977 7.59396 1.00977C8.26719 1.00977 9.51748 1.63491 9.51748 2.90924C9.51748 3.14967 9.46939 3.4382 9.37322 3.77482L9.15682 4.47209H11.6333L12.6672 1.17807C12.7153 1.05785 12.8596 1.00977 13.1 1.00977C13.7973 1.00977 15.0476 1.63491 15.0476 2.90924C15.0476 3.14967 14.9995 3.4382 14.8793 3.77482L14.6629 4.47209H15.3361C16.5623 4.47209 17.1634 4.92892 17.1634 5.81855V6.37156C17.1634 7.30927 16.5623 7.79015 15.3361 7.79015H13.629L12.7634 10.5071H13.4607C14.6869 10.5071 15.288 10.988 15.288 11.8776V12.4306C15.288 13.3443 14.6869 13.8252 13.4607 13.8252H11.7295L10.7197 17.0951C10.6956 17.2154 10.5273 17.2875 10.2869 17.2875C9.61365 17.2875 8.33933 16.6383 8.33933 15.364C8.33933 15.1235 8.41146 14.835 8.50763 14.4984L8.69999 13.8252H6.22346L5.21362 17.0951C5.16553 17.2154 4.99722 17.2875 4.78083 17.2875C4.08355 17.2875 2.83327 16.6383 2.83327 15.364C2.83327 15.1235 2.88136 14.835 2.97753 14.4984L3.19393 13.8252H2.5207C1.3185 13.8252 0.693359 13.3443 0.693359 12.4306H0.693359ZM7.23331 10.5312H9.75792L10.6235 7.76611H8.09889L7.23331 10.5312V10.5312Z" fill="white"/>
<path d="M17.9329 9.13698C17.9329 4.42437 21.3711 1.03418 26.1559 1.03418C30.9406 1.03418 34.3549 4.40033 34.3549 9.13698C34.3549 13.8736 30.9406 17.2638 26.1559 17.2638C21.3711 17.2638 17.9329 13.8977 17.9329 9.13698ZM29.5942 9.13698C29.5942 6.85281 28.2237 5.28995 26.1559 5.28995C24.0881 5.28995 22.6936 6.78068 22.6936 9.13698C22.6936 11.4933 24.0641 12.96 26.1559 12.96C28.2477 12.96 29.5942 11.4452 29.5942 9.13698Z" fill="white"/>
<path d="M40.4141 6.99683C40.8709 5.65037 41.8567 4.76074 43.2993 4.76074C44.8382 4.76074 45.824 5.7225 45.824 7.23727C45.824 9.08865 44.3573 9.71379 44.3092 9.6657C43.9245 9.30504 43.3234 9.04056 42.6502 9.04056C41.2797 9.04056 40.6064 10.0264 40.6064 11.9739V14.8111C40.6064 16.4942 39.7408 17.0472 38.5627 17.0472H38.0818C36.8556 17.0472 35.99 16.5182 35.99 14.8111V5.40993C35.99 5.24162 36.8315 4.88096 37.7692 4.88096C38.8272 4.88096 40.0053 5.3378 40.4141 6.99683V6.99683Z" fill="white"/>
<path d="M45.7036 18.6334C45.7036 17.0465 47.1703 16.0367 49.3583 15.7962C49.0938 15.5317 48.9736 15.147 48.9736 14.7142C48.9736 14.0891 49.3823 13.512 49.9834 13.1754C47.7954 12.6224 46.4971 11.2279 46.4971 9.28032C46.4971 6.65953 48.9255 4.7841 52.3397 4.7841C53.1091 4.7841 53.8545 4.90432 54.5277 5.09667L54.9365 4.27918C55.4895 3.1972 56.1146 2.8125 57.0043 2.8125C58.5912 2.8125 59.2884 4.63984 59.1682 4.73601L57.1004 6.61144C57.7977 7.3568 58.2065 8.27047 58.2065 9.25627C58.2065 11.829 56.0906 13.4159 52.5561 13.464V13.488C52.5561 14.0651 53.7343 14.1131 55.4895 14.594C57.1485 15.0509 58.8797 16.0607 58.8797 18.1285C58.8797 20.4367 56.4753 21.9995 52.2436 21.9995C47.6752 21.9995 45.7036 20.9416 45.7036 18.6334V18.6334ZM52.0512 17.2148C50.8009 17.335 50.0556 17.6957 50.0556 18.2968C50.0556 18.8979 50.7769 19.2826 52.2916 19.2826C53.8064 19.2826 54.5037 18.8738 54.5037 18.2727C54.5037 17.6236 53.4698 17.4793 52.0512 17.2148V17.2148ZM53.9988 9.23223C53.9988 8.22238 53.3255 7.54915 52.3157 7.54915C51.3058 7.54915 50.6567 8.22238 50.6567 9.23223C50.6567 10.2421 51.3539 10.9393 52.3397 10.9393C53.3255 10.9393 53.9988 10.2661 53.9988 9.23223V9.23223Z" fill="white"/>
<path d="M67.9922 15.0514C67.1507 16.3258 65.9966 17.2635 64.073 17.2635C60.9714 17.2635 59.8413 15.0034 59.8413 12.5509V7.0929C59.8413 5.43387 60.6828 4.88086 61.885 4.88086H62.3419C63.5922 4.88086 64.4577 5.38578 64.4577 7.0929V11.7334C64.4577 12.8154 65.0348 13.4886 66.0206 13.4886C66.814 13.4886 67.4392 13.1039 67.7998 12.5509V7.0929C67.7998 5.43387 68.6654 4.88086 69.8436 4.88086H70.3245C71.5507 4.88086 72.4163 5.38578 72.4163 7.0929V16.5181C72.4163 16.6624 71.5747 17.0471 70.637 17.0471C69.5791 17.0471 68.425 16.6143 67.9922 15.0514Z" fill="white"/>
<path d="M74.6042 14.8111V0.528966C74.6042 0.360659 75.4458 0 76.3835 0C77.7059 0 79.2207 0.697274 79.2207 3.51041V14.8111C79.2207 16.4701 78.3791 17.0471 77.201 17.0471H76.7201C75.4698 17.0471 74.6042 16.5182 74.6042 14.8111Z" fill="white"/>
<path d="M81.481 14.8111V0.528966C81.481 0.360659 82.3225 0 83.2602 0C84.5826 0 86.0974 0.697274 86.0974 3.51041V14.8111C86.0974 16.4701 85.2559 17.0471 84.0777 17.0471H83.5968C82.3465 17.0471 81.481 16.5182 81.481 14.8111V14.8111Z" fill="white"/>
<path d="M87.7563 10.9881C87.7563 7.26131 90.3771 4.76074 94.3203 4.76074C98.2635 4.76074 100.788 7.26131 100.788 11.0122C100.788 14.763 98.1914 17.2636 94.2482 17.2636C90.305 17.2636 87.7563 14.8111 87.7563 10.9881V10.9881ZM96.869 11.0122C96.869 9.40122 95.787 8.24711 94.2722 8.24711C92.7575 8.24711 91.6755 9.40122 91.6755 10.9881C91.6755 12.575 92.7334 13.7291 94.2722 13.7291C95.8111 13.7291 96.869 12.575 96.869 11.0122Z" fill="white"/>
<path d="M113.934 15.2201C113.093 16.4223 111.578 17.1917 109.414 17.1917C104.918 17.1917 102.008 13.8015 102.008 9.13698C102.008 4.47246 105.398 1.03418 110.52 1.03418C114.415 1.03418 116.675 2.57299 116.675 4.61672C116.675 6.37193 114.415 6.97303 114.271 6.80472C113.453 5.74679 112.179 5.14569 110.808 5.14569C108.596 5.14569 106.865 6.82877 106.865 9.37742C106.865 11.9261 108.428 13.5851 110.592 13.5851C112.275 13.5851 113.405 12.8157 113.646 11.5414H112.035C110.52 11.5414 109.774 11.1807 109.774 9.88234V9.66595C109.774 8.29544 110.52 8.00692 112.035 8.00692H116.266C117.661 8.00692 117.949 8.6561 117.925 10.0507V16.5666C117.925 16.7108 117.18 17.0474 116.314 17.0474C115.353 17.0474 114.319 16.6627 113.934 15.2201V15.2201Z" fill="white"/>
<path d="M119.927 14.8116V4.03997C119.927 2.30881 120.793 1.37109 122.379 1.37109H126.491C130.939 1.37109 133.368 3.29461 133.368 7.02142C133.368 10.7482 131.035 12.5515 126.635 12.5515H124.76V14.8116C124.76 16.2302 124.039 17.0477 122.644 17.0477H121.947C120.672 17.0477 119.927 16.2783 119.927 14.8116ZM124.688 9.04111H126.443C127.91 9.04111 128.679 8.31979 128.679 7.02142C128.679 5.72304 127.886 5.00173 126.371 5.00173H124.688V9.04111V9.04111Z" fill="white"/>
<path d="M134.017 3.43887V3.36674C134.017 2.04432 134.786 1.37109 136.229 1.37109H146.207C147.698 1.37109 148.443 2.04432 148.443 3.36674V3.43887C148.443 4.80937 147.698 5.55474 146.207 5.55474H143.683V14.8116C143.683 16.2783 142.913 17.0477 141.519 17.0477H140.845C139.523 17.0477 138.85 16.2783 138.85 14.8116V5.55474H136.229C134.786 5.55474 134.017 4.80937 134.017 3.43887V3.43887Z" fill="white"/>
<path d="M153.06 15.2203L149.381 2.93381C149.333 2.71742 150.343 1.29883 152.387 1.29883C153.348 1.29883 154.647 1.82779 155.031 3.87153L156.33 10.5798L157.965 4.49667C158.229 3.29447 159.311 2.74146 160.61 2.74146C161.836 2.74146 162.918 3.39065 163.182 4.49667L164.817 10.5798L166.116 3.7994C166.452 1.92397 167.606 1.29883 168.736 1.29883C170.66 1.29883 171.622 2.69338 171.55 2.93381L168.015 15.2203C167.654 16.5908 166.669 17.0716 165.178 17.0716C163.687 17.0716 162.774 16.6389 162.341 15.2203L160.513 8.80053L158.71 15.2203C158.325 16.6148 157.291 17.0716 155.849 17.0716C154.406 17.0716 153.444 16.6629 153.06 15.2203V15.2203Z" fill="white"/>
</svg>
